<?xml version="1.0" encoding="UTF-8"?>
<svg width="25px" height="36px" viewBox="0 0 25 36" version="1.1" xmlns="http://www.w3.org/2000/svg" xmlns:xlink="http://www.w3.org/1999/xlink">
    <!-- Generator: Sketch 45.2 (43514) - http://www.bohemiancoding.com/sketch -->
    <title>analyt</title>
    <desc>Created with Sketch.</desc>
    <defs></defs>
    <g id="Page-1" stroke="none" stroke-width="1" fill="none" fill-rule="evenodd">
        <g id="desktop_1440" transform="translate(-235.000000, -4205.000000)" fill-rule="nonzero" fill="#8AB596">
            <g id="TEAM" transform="translate(150.000000, 3744.000000)">
                <path d="M85.4216027,475.420806 C85.1516553,475.152828 85,474.78937 85,474.410389 C85,474.031408 85.1516553,473.667949 85.4216027,473.399971 L92.5795113,466.294167 C92.849454,466.026184 93.2155777,465.875633 93.5973376,465.875633 C93.9790976,465.875633 94.3452213,466.026184 94.6151639,466.294167 L97.5271108,469.184917 L102.260907,464.48558 L101.393646,463.627622 C101.158868,463.402596 101.034612,463.087121 101.053367,462.763685 C101.088053,462.263926 101.460201,461.851385 101.956763,461.762236 L106.53397,461.014886 C106.883267,460.956961 107.239235,461.070133 107.489648,461.318723 C107.740061,461.567313 107.854063,461.92069 107.795713,462.267444 L107.042883,466.793397 C106.966514,467.25366 106.603126,467.614403 106.139487,467.690217 C106.08137,467.695055 106.022947,467.695055 105.964831,467.690217 C105.657377,467.686028 105.364051,467.561385 105.148763,467.343446 L104.293548,466.491467 L98.5449371,472.216169 C98.2749944,472.484151 97.9088707,472.634702 97.5271108,472.634702 C97.1453509,472.634702 96.7792272,472.484151 96.5092845,472.216169 L93.5852924,469.325419 L87.4572553,475.420806 C87.1873126,475.688788 86.8211889,475.83934 86.439429,475.83934 C86.057669,475.83934 85.6915454,475.688788 85.4216027,475.420806 L85.4216027,475.420806 Z M108.60877,470.700543 C109.377125,470.700543 110,471.318884 110,472.081646 L110,495.618897 C110,496.381659 109.377125,497 108.60877,497 L87.3518591,497 C86.5835039,497 85.960629,496.381659 85.960629,495.618897 L85.960629,481.570002 C85.960629,480.80724 86.5835039,480.188899 87.3518591,480.188899 L91.2665756,480.188899 L91.2665756,476.230933 C91.2665756,475.468171 91.8894505,474.84983 92.6578057,474.84983 L97.9727862,474.84983 C98.7411413,474.84983 99.3640163,475.468171 99.3640163,476.230933 L99.3640163,476.981273 L101.899548,476.981273 L101.899548,472.081646 C101.899548,471.715354 102.046124,471.364065 102.30703,471.105058 C102.567936,470.846051 102.921801,470.700543 103.290778,470.700543 L108.60877,470.700543 Z M91.2635643,482.957084 L88.7430891,482.957084 L88.7430891,494.237794 L91.2635643,494.237794 L91.2635643,482.957084 Z M96.5815562,477.612036 L94.0460244,477.612036 L94.0460244,481.423522 C94.0486459,481.472314 94.0486459,481.52121 94.0460244,481.570002 L94.0460244,494.237794 L96.5664996,494.237794 L96.5664996,477.612036 L96.5815562,477.612036 Z M101.899548,479.743479 L99.3640163,479.743479 L99.3640163,494.237794 L101.899548,494.237794 L101.899548,479.743479 Z M104.682008,494.237794 L107.21754,494.237794 L107.21754,473.462749 L104.682008,473.462749 L104.682008,478.362376 L104.682008,494.237794 Z" id="analyt"></path>
            </g>
        </g>
    </g>
</svg>