<?xml version="1.0" encoding="UTF-8"?>
<svg width="22px" height="22px" viewBox="0 0 22 22" version="1.1" xmlns="http://www.w3.org/2000/svg" xmlns:xlink="http://www.w3.org/1999/xlink">
    <!-- Generator: Sketch 45.2 (43514) - http://www.bohemiancoding.com/sketch -->
    <title>Instagram</title>
    <desc>Created with Sketch.</desc>
    <defs></defs>
    <g id="Page-1" stroke="none" stroke-width="1" fill="none" fill-rule="evenodd">
        <g id="Artboard" transform="translate(-326.000000, -1130.000000)" fill="#FFD619">
            <g id="social" transform="translate(75.000000, 1130.000000)">
                <path d="M270.367125,0.247789474 L253.874548,0.247789474 C252.454086,0.247789474 251.302728,1.37442105 251.302728,2.76505263 L251.302728,18.9564737 C251.302728,20.3465263 252.454086,21.4737368 253.874548,21.4737368 L270.367125,21.4737368 C271.787587,21.4737368 272.938945,20.3465263 272.938945,18.9564737 L272.938945,2.76505263 C272.938945,1.37442105 271.787587,0.247789474 270.367125,0.247789474 L270.367125,0.247789474 Z M266.854036,3.564 C266.854036,3.19810526 267.156776,2.90110526 267.529743,2.90110526 L269.558047,2.90110526 C269.931604,2.90110526 270.234344,3.19810526 270.234344,3.564 L270.234344,5.55442105 C270.234344,5.92031579 269.931604,6.21731579 269.558047,6.21731579 L267.529743,6.21731579 C267.156776,6.21731579 266.854036,5.92031579 266.854036,5.55442105 L266.854036,3.564 L266.854036,3.564 Z M262.145917,6.81305263 C264.443913,6.81305263 266.306978,8.63673684 266.306978,10.8853684 C266.306978,13.1345789 264.443913,14.9576842 262.145917,14.9576842 C259.848511,14.9576842 257.985447,13.1345789 257.985447,10.8853684 C257.985447,8.63673684 259.848511,6.81305263 262.145917,6.81305263 L262.145917,6.81305263 Z M270.910642,18.8204211 C270.910642,19.1863158 270.607901,19.4838947 270.234344,19.4838947 L254.007329,19.4838947 C253.633772,19.4838947 253.331031,19.1863158 253.331031,18.8204211 L253.331031,8.87063158 L256.035632,8.87063158 C255.68332,9.36794737 255.564112,10.296 255.564112,10.8853684 C255.564112,14.4372105 258.517161,17.3273158 262.145917,17.3273158 C265.775264,17.3273158 268.728313,14.4372105 268.728313,10.8853684 C268.728313,10.296 268.642743,9.38242105 268.206041,8.87063158 L270.910642,8.87063158 L270.910642,18.8204211 L270.910642,18.8204211 Z" id="Instagram"></path>
            </g>
        </g>
    </g>
</svg>