<?xml version="1.0" encoding="UTF-8"?>
<svg width="560px" height="10px" viewBox="0 0 560 10" version="1.1" xmlns="http://www.w3.org/2000/svg" xmlns:xlink="http://www.w3.org/1999/xlink">
    <!-- Generator: Sketch 45.2 (43514) - http://www.bohemiancoding.com/sketch -->
    <title>parralax</title>
    <desc>Created with Sketch.</desc>
    <defs></defs>
    <g id="Page-1" stroke="none" stroke-width="1" fill="none" fill-rule="evenodd">
        <g id="desktop_1440" transform="translate(-782.000000, -3594.000000)" fill-rule="nonzero" fill="#F0E9D2">
            <g id="PROJECT" transform="translate(-187.000000, 2604.000000)">
                <g id="parralax" transform="translate(969.000000, 990.000000)">
                    <path d="M314.5,7.55910256 L316.959184,10 L317.427471,9.47224066 L317.959184,10 L320,7.7 L317.161056,4.91783439 L320,2.1 L317.857143,0 L317.357143,0.49 L316.857143,0 L314.5,2.31 L312.142857,0 L311.642857,0.49 L311.142857,0 L309,2.1 L311.838944,4.91783439 L309,7.7 L311.040816,10 L311.572529,9.47224066 L312.040816,10 L314.5,7.55910256 Z M279.5,7.55910256 L281.959184,10 L282.427471,9.47224066 L282.959184,10 L285,7.7 L282.161056,4.91783439 L285,2.1 L282.857143,0 L282.357143,0.49 L281.857143,0 L279.5,2.31 L277.142857,0 L276.642857,0.49 L276.142857,0 L274,2.1 L276.838944,4.91783439 L274,7.7 L276.040816,10 L276.572529,9.47224066 L277.040816,10 L279.5,7.55910256 Z M245.5,7.55910256 L247.959184,10 L248.427471,9.47224066 L248.959184,10 L251,7.7 L248.161056,4.91783439 L251,2.1 L248.857143,0 L248.357143,0.49 L247.857143,0 L245.5,2.31 L243.142857,0 L242.642857,0.49 L242.142857,0 L240,2.1 L242.838944,4.91783439 L240,7.7 L242.040816,10 L242.572529,9.47224066 L243.040816,10 L245.5,7.55910256 Z M212,7.06282051 L214.959184,10 L217,7.7 L214.161056,4.91783439 L217,2.1 L214.857143,0 L212,2.8 L209.142857,0 L207,2.1 L209.838944,4.91783439 L207,7.7 L209.040816,10 L212,7.06282051 Z M177,7.06282051 L179.959184,10 L182,7.7 L179.161056,4.91783439 L182,2.1 L179.857143,0 L177,2.8 L174.142857,0 L172,2.1 L174.838944,4.91783439 L172,7.7 L174.040816,10 L177,7.06282051 Z M143,7.06282051 L145.959184,10 L148,7.7 L145.161056,4.91783439 L148,2.1 L145.857143,0 L143,2.8 L140.142857,0 L138,2.1 L140.838944,4.91783439 L138,7.7 L140.040816,10 L143,7.06282051 Z M108,7.06282051 L110.959184,10 L113,7.7 L110.161056,4.91783439 L113,2.1 L110.857143,0 L108,2.8 L105.142857,0 L103,2.1 L105.838944,4.91783439 L103,7.7 L105.040816,10 L108,7.06282051 Z M74,7.06282051 L76.9591837,10 L79,7.7 L76.1610555,4.91783439 L79,2.1 L76.8571429,0 L74,2.8 L71.1428571,0 L69,2.1 L71.8389445,4.91783439 L69,7.7 L71.0408163,10 L74,7.06282051 Z M39,7.06282051 L41.9591837,10 L44,7.7 L41.1610555,4.91783439 L44,2.1 L41.8571429,0 L39,2.8 L36.1428571,0 L34,2.1 L36.8389445,4.91783439 L34,7.7 L36.0408163,10 L39,7.06282051 Z M5,7.06282051 L7.95918367,10 L10,7.7 L7.16105551,4.91783439 L10,2.1 L7.85714286,0 L5,2.8 L2.14285714,0 L0,2.1 L2.83894449,4.91783439 L0,7.7 L2.04081633,10 L5,7.06282051 Z M555,7.06282051 L557.959184,10 L560,7.7 L557.161056,4.91783439 L560,2.1 L557.857143,0 L555,2.8 L552.142857,0 L550,2.1 L552.838944,4.91783439 L550,7.7 L552.040816,10 L555,7.06282051 Z M520,7.06282051 L522.959184,10 L525,7.7 L522.161056,4.91783439 L525,2.1 L522.857143,0 L520,2.8 L517.142857,0 L515,2.1 L517.838944,4.91783439 L515,7.7 L517.040816,10 L520,7.06282051 Z M486,7.06282051 L488.959184,10 L491,7.7 L488.161056,4.91783439 L491,2.1 L488.857143,0 L486,2.8 L483.142857,0 L481,2.1 L483.838944,4.91783439 L481,7.7 L483.040816,10 L486,7.06282051 Z M452,7.06282051 L454.959184,10 L457,7.7 L454.161056,4.91783439 L457,2.1 L454.857143,0 L452,2.8 L449.142857,0 L447,2.1 L449.838944,4.91783439 L447,7.7 L449.040816,10 L452,7.06282051 Z M417,7.06282051 L419.959184,10 L422,7.7 L419.161056,4.91783439 L422,2.1 L419.857143,0 L417,2.8 L414.142857,0 L412,2.1 L414.838944,4.91783439 L412,7.7 L414.040816,10 L417,7.06282051 Z M383,7.06282051 L385.959184,10 L388,7.7 L385.161056,4.91783439 L388,2.1 L385.857143,0 L383,2.8 L380.142857,0 L378,2.1 L380.838944,4.91783439 L378,7.7 L380.040816,10 L383,7.06282051 Z M348,7.06282051 L350.959184,10 L353,7.7 L350.161056,4.91783439 L353,2.1 L350.857143,0 L348,2.8 L345.142857,0 L343,2.1 L345.838944,4.91783439 L343,7.7 L345.040816,10 L348,7.06282051 Z" id="Combined-Shape"></path>
                </g>
            </g>
        </g>
    </g>
</svg>