<?xml version="1.0" encoding="UTF-8"?>
<svg width="11px" height="81px" viewBox="0 0 11 81" version="1.1" xmlns="http://www.w3.org/2000/svg" xmlns:xlink="http://www.w3.org/1999/xlink">
    <!-- Generator: Sketch 45.2 (43514) - http://www.bohemiancoding.com/sketch -->
    <title>parralax3</title>
    <desc>Created with Sketch.</desc>
    <defs></defs>
    <g id="Page-1" stroke="none" stroke-width="1" fill="none" fill-rule="evenodd">
        <g id="desktop_1440" transform="translate(-145.000000, -1360.000000)" fill-rule="nonzero" fill="#8BB697">
            <g id="COMPANY" transform="translate(145.000000, 977.000000)">
                <path d="M43.2137592,422.8 C42.3181818,420.9 41.2235872,418.5 38.536855,418.5 C35.8501229,418.5 34.9545455,420.9 34.2579853,422.6 C33.4619165,424.8 32.9643735,425.7 31.3722359,425.7 C29.7800983,425.7 29.1830467,424.7 28.2874693,422.4 C27.5909091,420.6 26.5958231,418.1 23.8095823,418.1 C21.0233415,418.1 19.9287469,420.6 19.0331695,422.6 C17.9385749,425 17.3415233,426.1 15.8488943,426.1 C14.5552826,426.1 14.0577396,425.3 13.2616708,423.1 C12.465602,421.1 11.470516,418.3 8.08722359,418.3 C4.7039312,418.3 3.90786241,421 3.31081081,422.8 C2.71375921,424.8 2.41523342,425.3 1.12162162,425.3 C-0.271498771,425.3 -0.66953317,424.5 -1.36609337,422.5 C-1.96314496,420.7 -2.95823096,418 -6.14250614,418 C-9.22727273,418 -10.1228501,420.6 -10.8194103,422.5 C-11.6154791,424.7 -12.0135135,425.6 -13.7051597,425.6 C-15.1977887,425.6 -15.5958231,424.9 -16.1928747,422.7 C-16.7899263,420.8 -17.5859951,418 -21.0687961,418.2 C-24.4520885,418.3 -25.2481572,421 -25.8452088,422.8 C-26.4422604,424.8 -26.8402948,425.4 -28.2334152,425.5 C-29.8255528,425.5 -30.2235872,424.8 -30.9201474,422.7 C-31.4176904,421.1 -32.2137592,418.7 -35,418.7 L-35,421.7 C-34.502457,421.7 -34.3034398,421.8 -33.8058968,423.6 C-33.2088452,425.4 -32.2137592,428.4 -28.3329238,428.4 C-24.5515971,428.4 -23.6560197,425.5 -23.0589681,423.6 C-22.4619165,421.7 -22.1633907,421.2 -21.0687961,421.1 C-20.0737101,421.1 -19.7751843,421.4 -19.1781327,423.5 C-18.5810811,425.5 -17.6855037,428.5 -13.8046683,428.5 C-9.92383292,428.5 -8.82923833,425.4 -8.13267813,423.4 C-7.43611794,421.3 -7.13759214,420.9 -6.24201474,420.9 C-5.34643735,420.9 -5.04791155,421.4 -4.35135135,423.4 C-3.65479115,425.3 -2.65970516,428.2 1.02211302,428.2 C4.6044226,428.2 5.5,425.4 5.997543,423.6 C6.59459459,421.6 6.89312039,421.3 7.88820639,421.3 C8.98280098,421.3 9.38083538,421.9 10.2764128,424.1 C11.0724816,426.2 12.1670762,429 15.6498771,429 C19.2321867,429 20.6253071,426 21.6203931,423.7 C22.4164619,422 22.9140049,421 23.7100737,421 C24.3071253,421 24.7051597,421.6 25.4017199,423.4 C26.1977887,425.5 27.4914005,428.6 31.2727273,428.6 C35.0540541,428.6 36.2481572,425.6 37.044226,423.6 C37.7407862,421.8 38.039312,421.4 38.536855,421.4 C39.2334152,421.4 39.7309582,422.2 40.527027,424 C41.4226044,426 42.7162162,428.8 46,428.8 L46,425.8 C44.7063882,425.8 44.1093366,424.8 43.2137592,422.8 Z" id="parralax3" transform="translate(5.500000, 423.500000) rotate(-270.000000) translate(-5.500000, -423.500000) "></path>
            </g>
        </g>
    </g>
</svg>