<?xml version="1.0" encoding="UTF-8"?>
<svg width="29px" height="28px" viewBox="0 0 29 28" version="1.1" xmlns="http://www.w3.org/2000/svg" xmlns:xlink="http://www.w3.org/1999/xlink">
    <!-- Generator: Sketch 45.2 (43514) - http://www.bohemiancoding.com/sketch -->
    <title>Group 15</title>
    <desc>Created with Sketch.</desc>
    <defs></defs>
    <g id="Page-1" stroke="none" stroke-width="1" fill="none" fill-rule="evenodd">
        <g id="desktop_1440" transform="translate(-234.000000, -1937.000000)" fill-rule="nonzero" fill="#FFD619">
            <g id="MAKE" transform="translate(110.000000, 1738.000000)">
                <g id="CREATE" transform="translate(100.000000, 186.000000)">
                    <g id="sites">
                        <g id="Group-16" transform="translate(24.000000, 13.000000)">
                            <g id="Group-17">
                                <g id="Group-15">
                                    <path d="M28.0604,0.256333388 L0.9396,0.256333388 C0.419533333,0.256333388 0,0.669897293 0,1.18256407 L0,26.2136623 C0,26.7263291 0.419533333,27.139893 0.9396,27.139893 L28.0594333,27.139893 C28.5795,27.139893 28.9990333,26.7263291 28.9990333,26.2136623 L28.9990333,1.18256407 C29,0.669897293 28.5804667,0.256333388 28.0604,0.256333388 Z M11.7480667,25.8820489 L5.79906667,25.8820489 L5.79906667,24.2868738 L11.7480667,24.2868738 L11.7480667,25.8820489 Z M17.2519333,25.7772285 L17.2519333,24.2868738 L23.2009333,24.2868738 L23.2009333,25.7772285 L17.2519333,25.7772285 Z M27.1198333,25.8820489 L25.0811,25.8820489 L25.0811,23.3596902 C25.0811,22.8470235 24.6615667,22.4334596 24.1415,22.4334596 L16.3113667,22.4334596 C15.7913,22.4334596 15.3717667,22.8470235 15.3717667,23.3596902 L15.3717667,25.8820489 L24.6675667,25.8820489 L13.6292,25.8820489 L13.6292,23.3596902 C13.6292,22.8470235 13.2096667,22.4334596 12.6896,22.4334596 L4.8585,22.4334596 C4.33843333,22.4334596 3.9189,22.8470235 3.9189,23.3596902 L3.9189,25.8820489 L1.88016667,25.8820489 L1.88016667,10.247618 L27.1198333,10.247618 L27.1198333,25.8820489 Z M27.1198333,8.39301275 L1.88016667,8.39301275 L1.88016667,2.10974766 L27.1198333,2.10974766 L27.1198333,8.39301275 Z" id="Shape"></path>
                                    <path d="M12.6876667,20.7220292 L4.85753333,20.7220292 C4.33843333,20.7220292 3.91793333,20.3075124 3.91793333,19.7957985 L3.91793333,13.12446 C3.91793333,12.6127462 4.33843333,12.1982294 4.85753333,12.1982294 L12.6876667,12.1982294 C13.2067667,12.1982294 13.6272667,12.6127462 13.6272667,13.12446 L13.6272667,19.7957985 C13.6272667,20.3075124 13.2067667,20.7220292 12.6876667,20.7220292 Z M5.7981,18.8695678 L11.7480667,18.8695678 L11.7480667,14.0516436 L5.7981,14.0516436 L5.7981,18.8695678 Z" id="Shape"></path>
                                    <path d="M24.0392333,20.7220292 L16.2100667,20.7220292 C15.6909667,20.7220292 15.2704667,20.3075124 15.2704667,19.7957985 L15.2704667,13.12446 C15.2704667,12.6127462 15.6909667,12.1982294 16.2100667,12.1982294 L24.0402,12.1982294 C24.5593,12.1982294 24.9798,12.6127462 24.9798,13.12446 L24.9798,19.7957985 C24.9798,20.3075124 24.5583333,20.7220292 24.0392333,20.7220292 Z M17.1496667,18.8695678 L23.0996333,18.8695678 L23.0996333,14.0516436 L17.1496667,14.0516436 L17.1496667,18.8695678 Z" id="Shape"></path>
                                    <path d="M5.40796669,6.55127153 C4.71705845,6.55127153 4.15696667,5.99878137 4.15696667,5.31725021 C4.15696667,4.63571904 4.71705845,4.08322888 5.40796669,4.08322888 C6.09887492,4.08322888 6.65896671,4.63571904 6.65896671,5.31725021 C6.65896671,5.99878137 6.09887492,6.55127153 5.40796669,6.55127153 Z M9.00796669,6.55127153 C8.31705845,6.55127153 7.75696667,5.99878137 7.75696667,5.31725021 C7.75696667,4.63571904 8.31705845,4.08322888 9.00796669,4.08322888 C9.69887492,4.08322888 10.2589667,4.63571904 10.2589667,5.31725021 C10.2589667,5.99878137 9.69887492,6.55127153 9.00796669,6.55127153 Z M12.6079667,6.55127153 C11.9170585,6.55127153 11.3569667,5.99878137 11.3569667,5.31725021 C11.3569667,4.63571904 11.9170585,4.08322888 12.6079667,4.08322888 C13.2988749,4.08322888 13.8589667,4.63571904 13.8589667,5.31725021 C13.8589667,5.99878137 13.2988749,6.55127153 12.6079667,6.55127153 Z" id="Combined-Shape"></path>
                                </g>
                            </g>
                        </g>
                    </g>
                </g>
            </g>
        </g>
    </g>
</svg>