<?xml version="1.0" encoding="UTF-8"?>
<svg width="10px" height="10px" viewBox="0 0 10 10" version="1.1" xmlns="http://www.w3.org/2000/svg" xmlns:xlink="http://www.w3.org/1999/xlink">
    <!-- Generator: Sketch 45.2 (43514) - http://www.bohemiancoding.com/sketch -->
    <title>Combined Shape</title>
    <desc>Created with Sketch.</desc>
    <defs></defs>
    <g id="Page-1" stroke="none" stroke-width="1" fill="none" fill-rule="evenodd">
        <g id="desktop_1440" transform="translate(-992.000000, -170.000000)" fill-rule="nonzero" fill="#8BB697">
            <g id="HEADER" transform="translate(70.000000, 50.000000)">
                <g id="menu" transform="translate(208.000000, 117.000000)">
                    <path d="M719,10.0628205 L721.959184,13 L724,10.7 L721.161056,7.91783439 L724,5.1 L721.857143,3 L719,5.8 L716.142857,3 L714,5.1 L716.838944,7.91783439 L714,10.7 L716.040816,13 L719,10.0628205 Z" id="Combined-Shape"></path>
                </g>
            </g>
        </g>
    </g>
</svg>